Chapter 3 GEE and MLM | 生物信息随记
…
dataset %>%
  group_by(patient) %>%
    summarise(
      count = n(),
      mean = mean(GFR, na.rm=TRUE),
      sd = sd(GFR, na.rm=TRUE)
    )
#> # A tibble: 200 × 4
#>    patient count  mean    sd
#>      <int> <int> <dbl> <dbl>
#>  1       1     8  30.9  8.11
#>  2       2     8  76.2 12.9 
#>  3       3     8  39.8 14.2 
#>  4       4     4  17.2 17.8 
#>  5       5     8  73.7  6.58
#>  6       6     6  25.2 10.5 
#>  7       7     8  37.3  5.37
#>  8       8     8  35.2  6.44
#>  9       9     4  27.0 14.3 
#> 10      10     8  45.3  7.22
#> # ℹ 190 more rows
…
