Chapter 15 Random Forest Algorithm | 生物信息随记
…
结果：

该模型的袋外误差OOB仅为4.01%，也即是准确率高达95.99%。

15.7 特征的重要性得分

获取所有特征的重要性得分，此处使用MeanDecreaseAccuracy。

imp_biomarker <- tibble::as_tibble(round(importance(rf_fit), 2), rownames = "Features") %>% 
  dplyr::arrange(desc(MeanDecreaseAccuracy))
imp_biomarker
#> # A tibble: 30 × 5
#>    Features                 M     B MeanDecreaseAccuracy
#>    <chr>                <dbl> <dbl>                <dbl>
#>  1 radius_worst         16.4  23.4                  25.9
#>  2 concave.points_worst 15.0  21.2                  25.2
#>  3 area_worst           16.9  20.4                  24.4
#>  4 concave.points_mean  17.3  14.9                  22.3
#>  5 perimeter_worst      15.6  17.2                  21.8
#>  6 area_se               8.81 17.5                  19.3
#>  7 concavity_worst      15.4   7.74                 17.8
#>  8 concavity_mean        9.93 12.8                  16.4
#>  9 texture_worst        13.3  10.9                  15.9
#> 10 radius_se             6.94 12.6                  14.7
#> # ℹ 20 more rows
#> # ℹ 1 more variable: MeanDecreaseGini <dbl>
…
